-- Merging decision tree log ---
manifest
ADDED from C:\Users\Ross\Desktop\Accel\accel\platforms\android\app\src\main\AndroidManifest.xml:2:1-16:12
INJECTED from C:\Users\Ross\Desktop\Accel\accel\platforms\android\app\src\main\AndroidManifest.xml:2:1-16:12
INJECTED from C:\Users\Ross\Desktop\Accel\accel\platforms\android\app\src\main\AndroidManifest.xml:2:1-16:12
INJECTED from C:\Users\Ross\Desktop\Accel\accel\platforms\android\app\src\main\AndroidManifest.xml:2:1-16:12
MERGED from [com.android.support:appcompat-v7:25.4.0] C:\Users\Ross\.gradle\caches\transforms-1\files-1.1\appcompat-v7-25.4.0.aar\2229c26b858003df1991db52af855a8d\AndroidManifest.xml:17:1-31:12
MERGED from [com.android.support:support-v4:25.4.0] C:\Users\Ross\.gradle\caches\transforms-1\files-1.1\support-v4-25.4.0.aar\39a132704b9ff9707330475c2f394b5c\AndroidManifest.xml:17:1-31:12
MERGED from [com.android.support:support-fragment:25.4.0] C:\Users\Ross\.gradle\caches\transforms-1\files-1.1\support-fragment-25.4.0.aar\88d7f973cf00b63ff134522d34761128\AndroidManifest.xml:17:1-31:12
MERGED from [com.android.support:support-media-compat:25.4.0] C:\Users\Ross\.gradle\caches\transforms-1\files-1.1\support-media-compat-25.4.0.aar\2f20d4e0dd413c20ffdb045ff3db9f48\AndroidManifest.xml:17:1-31:12
MERGED from [com.android.support:support-core-utils:25.4.0] C:\Users\Ross\.gradle\caches\transforms-1\files-1.1\support-core-utils-25.4.0.aar\feeaa1a2fb9587aa511dd3b62f5da495\AndroidManifest.xml:17:1-31:12
MERGED from [com.android.support:animated-vector-drawable:25.4.0] C:\Users\Ross\.gradle\caches\transforms-1\files-1.1\animated-vector-drawable-25.4.0.aar\d792ceb3a57c1aacdae5d5ed6e634b41\AndroidManifest.xml:17:1-28:12
MERGED from [com.android.support:support-core-ui:25.4.0] C:\Users\Ross\.gradle\caches\transforms-1\files-1.1\support-core-ui-25.4.0.aar\584482a1729c59a13791af72f7f3def5\AndroidManifest.xml:17:1-31:12
MERGED from [com.android.support:support-vector-drawable:25.4.0] C:\Users\Ross\.gradle\caches\transforms-1\files-1.1\support-vector-drawable-25.4.0.aar\0a163f16440a0c90cb0b7a93cb153613\AndroidManifest.xml:17:1-28:12
MERGED from [com.android.support:support-compat:25.4.0] C:\Users\Ross\.gradle\caches\transforms-1\files-1.1\support-compat-25.4.0.aar\8dd57d7e649b7454402b06fdf9f83ea0\AndroidManifest.xml:17:1-31:12
MERGED from [:CordovaLib] C:\Users\Ross\Desktop\Accel\accel\platforms\android\CordovaLib\build\intermediates\manifests\full\debug\AndroidManifest.xml:20:1-27:12
INJECTED from C:\Users\Ross\Desktop\Accel\accel\platforms\android\app\src\main\AndroidManifest.xml:2:1-16:12
INJECTED from C:\Users\Ross\Desktop\Accel\accel\platforms\android\app\src\main\AndroidManifest.xml:2:1-16:12
INJECTED from C:\Users\Ross\Desktop\Accel\accel\platforms\android\app\src\main\AndroidManifest.xml:2:1-16:12
	package
		ADDED from C:\Users\Ross\Desktop\Accel\accel\platforms\android\app\src\main\AndroidManifest.xml:2:98-133
		INJECTED from C:\Users\Ross\Desktop\Accel\accel\platforms\android\app\src\main\AndroidManifest.xml
		INJECTED from C:\Users\Ross\Desktop\Accel\accel\platforms\android\app\src\main\AndroidManifest.xml
	android:versionName
		ADDED from C:\Users\Ross\Desktop\Accel\accel\platforms\android\app\src\main\AndroidManifest.xml:2:70-97
		INJECTED from C:\Users\Ross\Desktop\Accel\accel\platforms\android\app\src\main\AndroidManifest.xml
		INJECTED from C:\Users\Ross\Desktop\Accel\accel\platforms\android\app\src\main\AndroidManifest.xml
	android:hardwareAccelerated
		ADDED from C:\Users\Ross\Desktop\Accel\accel\platforms\android\app\src\main\AndroidManifest.xml:2:11-45
	xmlns:android
		ADDED from C:\Users\Ross\Desktop\Accel\accel\platforms\android\app\src\main\AndroidManifest.xml:2:134-192
	android:versionCode
		ADDED from C:\Users\Ross\Desktop\Accel\accel\platforms\android\app\src\main\AndroidManifest.xml:2:46-69
		INJECTED from C:\Users\Ross\Desktop\Accel\accel\platforms\android\app\src\main\AndroidManifest.xml
		INJECTED from C:\Users\Ross\Desktop\Accel\accel\platforms\android\app\src\main\AndroidManifest.xml
supports-screens
ADDED from C:\Users\Ross\Desktop\Accel\accel\platforms\android\app\src\main\AndroidManifest.xml:3:5-191
	android:largeScreens
		ADDED from C:\Users\Ross\Desktop\Accel\accel\platforms\android\app\src\main\AndroidManifest.xml:3:49-76
	android:smallScreens
		ADDED from C:\Users\Ross\Desktop\Accel\accel\platforms\android\app\src\main\AndroidManifest.xml:3:132-159
	android:normalScreens
		ADDED from C:\Users\Ross\Desktop\Accel\accel\platforms\android\app\src\main\AndroidManifest.xml:3:77-105
	android:xlargeScreens
		ADDED from C:\Users\Ross\Desktop\Accel\accel\platforms\android\app\src\main\AndroidManifest.xml:3:160-188
	android:resizeable
		ADDED from C:\Users\Ross\Desktop\Accel\accel\platforms\android\app\src\main\AndroidManifest.xml:3:106-131
	android:anyDensity
		ADDED from C:\Users\Ross\Desktop\Accel\accel\platforms\android\app\src\main\AndroidManifest.xml:3:23-48
uses-permission#android.permission.INTERNET
ADDED from C:\Users\Ross\Desktop\Accel\accel\platforms\android\app\src\main\AndroidManifest.xml:4:5-67
	android:name
		ADDED from C:\Users\Ross\Desktop\Accel\accel\platforms\android\app\src\main\AndroidManifest.xml:4:22-64
application
ADDED from C:\Users\Ross\Desktop\Accel\accel\platforms\android\app\src\main\AndroidManifest.xml:5:5-12:19
MERGED from [com.android.support:appcompat-v7:25.4.0] C:\Users\Ross\.gradle\caches\transforms-1\files-1.1\appcompat-v7-25.4.0.aar\2229c26b858003df1991db52af855a8d\AndroidManifest.xml:25:5-29:19
MERGED from [com.android.support:appcompat-v7:25.4.0] C:\Users\Ross\.gradle\caches\transforms-1\files-1.1\appcompat-v7-25.4.0.aar\2229c26b858003df1991db52af855a8d\AndroidManifest.xml:25:5-29:19
MERGED from [com.android.support:support-v4:25.4.0] C:\Users\Ross\.gradle\caches\transforms-1\files-1.1\support-v4-25.4.0.aar\39a132704b9ff9707330475c2f394b5c\AndroidManifest.xml:25:5-29:19
MERGED from [com.android.support:support-v4:25.4.0] C:\Users\Ross\.gradle\caches\transforms-1\files-1.1\support-v4-25.4.0.aar\39a132704b9ff9707330475c2f394b5c\AndroidManifest.xml:25:5-29:19
MERGED from [com.android.support:support-fragment:25.4.0] C:\Users\Ross\.gradle\caches\transforms-1\files-1.1\support-fragment-25.4.0.aar\88d7f973cf00b63ff134522d34761128\AndroidManifest.xml:25:5-29:19
MERGED from [com.android.support:support-fragment:25.4.0] C:\Users\Ross\.gradle\caches\transforms-1\files-1.1\support-fragment-25.4.0.aar\88d7f973cf00b63ff134522d34761128\AndroidManifest.xml:25:5-29:19
MERGED from [com.android.support:support-media-compat:25.4.0] C:\Users\Ross\.gradle\caches\transforms-1\files-1.1\support-media-compat-25.4.0.aar\2f20d4e0dd413c20ffdb045ff3db9f48\AndroidManifest.xml:25:5-29:19
MERGED from [com.android.support:support-media-compat:25.4.0] C:\Users\Ross\.gradle\caches\transforms-1\files-1.1\support-media-compat-25.4.0.aar\2f20d4e0dd413c20ffdb045ff3db9f48\AndroidManifest.xml:25:5-29:19
MERGED from [com.android.support:support-core-utils:25.4.0] C:\Users\Ross\.gradle\caches\transforms-1\files-1.1\support-core-utils-25.4.0.aar\feeaa1a2fb9587aa511dd3b62f5da495\AndroidManifest.xml:25:5-29:19
MERGED from [com.android.support:support-core-utils:25.4.0] C:\Users\Ross\.gradle\caches\transforms-1\files-1.1\support-core-utils-25.4.0.aar\feeaa1a2fb9587aa511dd3b62f5da495\AndroidManifest.xml:25:5-29:19
MERGED from [com.android.support:animated-vector-drawable:25.4.0] C:\Users\Ross\.gradle\caches\transforms-1\files-1.1\animated-vector-drawable-25.4.0.aar\d792ceb3a57c1aacdae5d5ed6e634b41\AndroidManifest.xml:22:5-26:19
MERGED from [com.android.support:animated-vector-drawable:25.4.0] C:\Users\Ross\.gradle\caches\transforms-1\files-1.1\animated-vector-drawable-25.4.0.aar\d792ceb3a57c1aacdae5d5ed6e634b41\AndroidManifest.xml:22:5-26:19
MERGED from [com.android.support:support-core-ui:25.4.0] C:\Users\Ross\.gradle\caches\transforms-1\files-1.1\support-core-ui-25.4.0.aar\584482a1729c59a13791af72f7f3def5\AndroidManifest.xml:25:5-29:19
MERGED from [com.android.support:support-core-ui:25.4.0] C:\Users\Ross\.gradle\caches\transforms-1\files-1.1\support-core-ui-25.4.0.aar\584482a1729c59a13791af72f7f3def5\AndroidManifest.xml:25:5-29:19
MERGED from [com.android.support:support-vector-drawable:25.4.0] C:\Users\Ross\.gradle\caches\transforms-1\files-1.1\support-vector-drawable-25.4.0.aar\0a163f16440a0c90cb0b7a93cb153613\AndroidManifest.xml:22:5-26:19
MERGED from [com.android.support:support-vector-drawable:25.4.0] C:\Users\Ross\.gradle\caches\transforms-1\files-1.1\support-vector-drawable-25.4.0.aar\0a163f16440a0c90cb0b7a93cb153613\AndroidManifest.xml:22:5-26:19
MERGED from [com.android.support:support-compat:25.4.0] C:\Users\Ross\.gradle\caches\transforms-1\files-1.1\support-compat-25.4.0.aar\8dd57d7e649b7454402b06fdf9f83ea0\AndroidManifest.xml:25:5-29:19
MERGED from [com.android.support:support-compat:25.4.0] C:\Users\Ross\.gradle\caches\transforms-1\files-1.1\support-compat-25.4.0.aar\8dd57d7e649b7454402b06fdf9f83ea0\AndroidManifest.xml:25:5-29:19
	android:supportsRtl
		ADDED from C:\Users\Ross\Desktop\Accel\accel\platforms\android\app\src\main\AndroidManifest.xml:5:114-140
	android:label
		ADDED from C:\Users\Ross\Desktop\Accel\accel\platforms\android\app\src\main\AndroidManifest.xml:5:81-113
	android:hardwareAccelerated
		ADDED from C:\Users\Ross\Desktop\Accel\accel\platforms\android\app\src\main\AndroidManifest.xml:5:18-52
	android:icon
		ADDED from C:\Users\Ross\Desktop\Accel\accel\platforms\android\app\src\main\AndroidManifest.xml:5:53-80
activity#com.cryodor.accelerometer.MainActivity
ADDED from C:\Users\Ross\Desktop\Accel\accel\platforms\android\app\src\main\AndroidManifest.xml:6:9-11:20
	android:label
		ADDED from C:\Users\Ross\Desktop\Accel\accel\platforms\android\app\src\main\AndroidManifest.xml:6:97-134
	android:launchMode
		ADDED from C:\Users\Ross\Desktop\Accel\accel\platforms\android\app\src\main\AndroidManifest.xml:6:135-165
	android:windowSoftInputMode
		ADDED from C:\Users\Ross\Desktop\Accel\accel\platforms\android\app\src\main\AndroidManifest.xml:6:257-299
	android:configChanges
		ADDED from C:\Users\Ross\Desktop\Accel\accel\platforms\android\app\src\main\AndroidManifest.xml:6:19-96
	android:theme
		ADDED from C:\Users\Ross\Desktop\Accel\accel\platforms\android\app\src\main\AndroidManifest.xml:6:194-256
	android:name
		ADDED from C:\Users\Ross\Desktop\Accel\accel\platforms\android\app\src\main\AndroidManifest.xml:6:166-193
intent-filter#android.intent.action.MAIN+android.intent.category.LAUNCHER
ADDED from C:\Users\Ross\Desktop\Accel\accel\platforms\android\app\src\main\AndroidManifest.xml:7:13-10:29
	android:label
		ADDED from C:\Users\Ross\Desktop\Accel\accel\platforms\android\app\src\main\AndroidManifest.xml:7:28-65
action#android.intent.action.MAIN
ADDED from C:\Users\Ross\Desktop\Accel\accel\platforms\android\app\src\main\AndroidManifest.xml:8:17-69
	android:name
		ADDED from C:\Users\Ross\Desktop\Accel\accel\platforms\android\app\src\main\AndroidManifest.xml:8:25-66
category#android.intent.category.LAUNCHER
ADDED from C:\Users\Ross\Desktop\Accel\accel\platforms\android\app\src\main\AndroidManifest.xml:9:17-77
	android:name
		ADDED from C:\Users\Ross\Desktop\Accel\accel\platforms\android\app\src\main\AndroidManifest.xml:9:27-74
uses-sdk
ADDED from C:\Users\Ross\Desktop\Accel\accel\platforms\android\app\src\main\AndroidManifest.xml:13:5-74
INJECTED from C:\Users\Ross\Desktop\Accel\accel\platforms\android\app\src\main\AndroidManifest.xml:13:5-74
MERGED from [com.android.support:appcompat-v7:25.4.0] C:\Users\Ross\.gradle\caches\transforms-1\files-1.1\appcompat-v7-25.4.0.aar\2229c26b858003df1991db52af855a8d\AndroidManifest.xml:21:5-23:78
MERGED from [com.android.support:appcompat-v7:25.4.0] C:\Users\Ross\.gradle\caches\transforms-1\files-1.1\appcompat-v7-25.4.0.aar\2229c26b858003df1991db52af855a8d\AndroidManifest.xml:21:5-23:78
MERGED from [com.android.support:support-v4:25.4.0] C:\Users\Ross\.gradle\caches\transforms-1\files-1.1\support-v4-25.4.0.aar\39a132704b9ff9707330475c2f394b5c\AndroidManifest.xml:21:5-23:54
MERGED from [com.android.support:support-v4:25.4.0] C:\Users\Ross\.gradle\caches\transforms-1\files-1.1\support-v4-25.4.0.aar\39a132704b9ff9707330475c2f394b5c\AndroidManifest.xml:21:5-23:54
MERGED from [com.android.support:support-fragment:25.4.0] C:\Users\Ross\.gradle\caches\transforms-1\files-1.1\support-fragment-25.4.0.aar\88d7f973cf00b63ff134522d34761128\AndroidManifest.xml:21:5-23:60
MERGED from [com.android.support:support-fragment:25.4.0] C:\Users\Ross\.gradle\caches\transforms-1\files-1.1\support-fragment-25.4.0.aar\88d7f973cf00b63ff134522d34761128\AndroidManifest.xml:21:5-23:60
MERGED from [com.android.support:support-media-compat:25.4.0] C:\Users\Ross\.gradle\caches\transforms-1\files-1.1\support-media-compat-25.4.0.aar\2f20d4e0dd413c20ffdb045ff3db9f48\AndroidManifest.xml:21:5-23:63
MERGED from [com.android.support:support-media-compat:25.4.0] C:\Users\Ross\.gradle\caches\transforms-1\files-1.1\support-media-compat-25.4.0.aar\2f20d4e0dd413c20ffdb045ff3db9f48\AndroidManifest.xml:21:5-23:63
MERGED from [com.android.support:support-core-utils:25.4.0] C:\Users\Ross\.gradle\caches\transforms-1\files-1.1\support-core-utils-25.4.0.aar\feeaa1a2fb9587aa511dd3b62f5da495\AndroidManifest.xml:21:5-23:61
MERGED from [com.android.support:support-core-utils:25.4.0] C:\Users\Ross\.gradle\caches\transforms-1\files-1.1\support-core-utils-25.4.0.aar\feeaa1a2fb9587aa511dd3b62f5da495\AndroidManifest.xml:21:5-23:61
MERGED from [com.android.support:animated-vector-drawable:25.4.0] C:\Users\Ross\.gradle\caches\transforms-1\files-1.1\animated-vector-drawable-25.4.0.aar\d792ceb3a57c1aacdae5d5ed6e634b41\AndroidManifest.xml:20:5-44
MERGED from [com.android.support:animated-vector-drawable:25.4.0] C:\Users\Ross\.gradle\caches\transforms-1\files-1.1\animated-vector-drawable-25.4.0.aar\d792ceb3a57c1aacdae5d5ed6e634b41\AndroidManifest.xml:20:5-44
MERGED from [com.android.support:support-core-ui:25.4.0] C:\Users\Ross\.gradle\caches\transforms-1\files-1.1\support-core-ui-25.4.0.aar\584482a1729c59a13791af72f7f3def5\AndroidManifest.xml:21:5-23:58
MERGED from [com.android.support:support-core-ui:25.4.0] C:\Users\Ross\.gradle\caches\transforms-1\files-1.1\support-core-ui-25.4.0.aar\584482a1729c59a13791af72f7f3def5\AndroidManifest.xml:21:5-23:58
MERGED from [com.android.support:support-vector-drawable:25.4.0] C:\Users\Ross\.gradle\caches\transforms-1\files-1.1\support-vector-drawable-25.4.0.aar\0a163f16440a0c90cb0b7a93cb153613\AndroidManifest.xml:20:5-43
MERGED from [com.android.support:support-vector-drawable:25.4.0] C:\Users\Ross\.gradle\caches\transforms-1\files-1.1\support-vector-drawable-25.4.0.aar\0a163f16440a0c90cb0b7a93cb153613\AndroidManifest.xml:20:5-43
MERGED from [com.android.support:support-compat:25.4.0] C:\Users\Ross\.gradle\caches\transforms-1\files-1.1\support-compat-25.4.0.aar\8dd57d7e649b7454402b06fdf9f83ea0\AndroidManifest.xml:21:5-23:58
MERGED from [com.android.support:support-compat:25.4.0] C:\Users\Ross\.gradle\caches\transforms-1\files-1.1\support-compat-25.4.0.aar\8dd57d7e649b7454402b06fdf9f83ea0\AndroidManifest.xml:21:5-23:58
MERGED from [:CordovaLib] C:\Users\Ross\Desktop\Accel\accel\platforms\android\CordovaLib\build\intermediates\manifests\full\debug\AndroidManifest.xml:25:5-44
MERGED from [:CordovaLib] C:\Users\Ross\Desktop\Accel\accel\platforms\android\CordovaLib\build\intermediates\manifests\full\debug\AndroidManifest.xml:25:5-44
INJECTED from C:\Users\Ross\Desktop\Accel\accel\platforms\android\app\src\main\AndroidManifest.xml:13:5-74
	tools:overrideLibrary
		ADDED from [com.android.support:appcompat-v7:25.4.0] C:\Users\Ross\.gradle\caches\transforms-1\files-1.1\appcompat-v7-25.4.0.aar\2229c26b858003df1991db52af855a8d\AndroidManifest.xml:23:9-75
	android:targetSdkVersion
		ADDED from C:\Users\Ross\Desktop\Accel\accel\platforms\android\app\src\main\AndroidManifest.xml:13:42-71
	android:minSdkVersion
		ADDED from C:\Users\Ross\Desktop\Accel\accel\platforms\android\app\src\main\AndroidManifest.xml:13:15-41
		INJECTED from C:\Users\Ross\Desktop\Accel\accel\platforms\android\app\src\main\AndroidManifest.xml
		INJECTED from C:\Users\Ross\Desktop\Accel\accel\platforms\android\app\src\main\AndroidManifest.xml
uses-permission#android.permission.WRITE_EXTERNAL_STORAGE
ADDED from C:\Users\Ross\Desktop\Accel\accel\platforms\android\app\src\main\AndroidManifest.xml:14:5-81
	android:name
		ADDED from C:\Users\Ross\Desktop\Accel\accel\platforms\android\app\src\main\AndroidManifest.xml:14:22-78
uses-permission#android.permission.READ_EXTERNAL_STORAGE
ADDED from C:\Users\Ross\Desktop\Accel\accel\platforms\android\app\src\main\AndroidManifest.xml:15:5-80
	android:name
		ADDED from C:\Users\Ross\Desktop\Accel\accel\platforms\android\app\src\main\AndroidManifest.xml:15:22-77
meta-data#android.support.VERSION
ADDED from [com.android.support:appcompat-v7:25.4.0] C:\Users\Ross\.gradle\caches\transforms-1\files-1.1\appcompat-v7-25.4.0.aar\2229c26b858003df1991db52af855a8d\AndroidManifest.xml:26:9-28:38
MERGED from [com.android.support:support-v4:25.4.0] C:\Users\Ross\.gradle\caches\transforms-1\files-1.1\support-v4-25.4.0.aar\39a132704b9ff9707330475c2f394b5c\AndroidManifest.xml:26:9-28:38
MERGED from [com.android.support:support-v4:25.4.0] C:\Users\Ross\.gradle\caches\transforms-1\files-1.1\support-v4-25.4.0.aar\39a132704b9ff9707330475c2f394b5c\AndroidManifest.xml:26:9-28:38
MERGED from [com.android.support:support-fragment:25.4.0] C:\Users\Ross\.gradle\caches\transforms-1\files-1.1\support-fragment-25.4.0.aar\88d7f973cf00b63ff134522d34761128\AndroidManifest.xml:26:9-28:38
MERGED from [com.android.support:support-fragment:25.4.0] C:\Users\Ross\.gradle\caches\transforms-1\files-1.1\support-fragment-25.4.0.aar\88d7f973cf00b63ff134522d34761128\AndroidManifest.xml:26:9-28:38
MERGED from [com.android.support:support-media-compat:25.4.0] C:\Users\Ross\.gradle\caches\transforms-1\files-1.1\support-media-compat-25.4.0.aar\2f20d4e0dd413c20ffdb045ff3db9f48\AndroidManifest.xml:26:9-28:38
MERGED from [com.android.support:support-media-compat:25.4.0] C:\Users\Ross\.gradle\caches\transforms-1\files-1.1\support-media-compat-25.4.0.aar\2f20d4e0dd413c20ffdb045ff3db9f48\AndroidManifest.xml:26:9-28:38
MERGED from [com.android.support:support-core-utils:25.4.0] C:\Users\Ross\.gradle\caches\transforms-1\files-1.1\support-core-utils-25.4.0.aar\feeaa1a2fb9587aa511dd3b62f5da495\AndroidManifest.xml:26:9-28:38
MERGED from [com.android.support:support-core-utils:25.4.0] C:\Users\Ross\.gradle\caches\transforms-1\files-1.1\support-core-utils-25.4.0.aar\feeaa1a2fb9587aa511dd3b62f5da495\AndroidManifest.xml:26:9-28:38
MERGED from [com.android.support:animated-vector-drawable:25.4.0] C:\Users\Ross\.gradle\caches\transforms-1\files-1.1\animated-vector-drawable-25.4.0.aar\d792ceb3a57c1aacdae5d5ed6e634b41\AndroidManifest.xml:23:9-25:38
MERGED from [com.android.support:animated-vector-drawable:25.4.0] C:\Users\Ross\.gradle\caches\transforms-1\files-1.1\animated-vector-drawable-25.4.0.aar\d792ceb3a57c1aacdae5d5ed6e634b41\AndroidManifest.xml:23:9-25:38
MERGED from [com.android.support:support-core-ui:25.4.0] C:\Users\Ross\.gradle\caches\transforms-1\files-1.1\support-core-ui-25.4.0.aar\584482a1729c59a13791af72f7f3def5\AndroidManifest.xml:26:9-28:38
MERGED from [com.android.support:support-core-ui:25.4.0] C:\Users\Ross\.gradle\caches\transforms-1\files-1.1\support-core-ui-25.4.0.aar\584482a1729c59a13791af72f7f3def5\AndroidManifest.xml:26:9-28:38
MERGED from [com.android.support:support-vector-drawable:25.4.0] C:\Users\Ross\.gradle\caches\transforms-1\files-1.1\support-vector-drawable-25.4.0.aar\0a163f16440a0c90cb0b7a93cb153613\AndroidManifest.xml:23:9-25:38
MERGED from [com.android.support:support-vector-drawable:25.4.0] C:\Users\Ross\.gradle\caches\transforms-1\files-1.1\support-vector-drawable-25.4.0.aar\0a163f16440a0c90cb0b7a93cb153613\AndroidManifest.xml:23:9-25:38
MERGED from [com.android.support:support-compat:25.4.0] C:\Users\Ross\.gradle\caches\transforms-1\files-1.1\support-compat-25.4.0.aar\8dd57d7e649b7454402b06fdf9f83ea0\AndroidManifest.xml:26:9-28:38
MERGED from [com.android.support:support-compat:25.4.0] C:\Users\Ross\.gradle\caches\transforms-1\files-1.1\support-compat-25.4.0.aar\8dd57d7e649b7454402b06fdf9f83ea0\AndroidManifest.xml:26:9-28:38
	android:value
		ADDED from [com.android.support:appcompat-v7:25.4.0] C:\Users\Ross\.gradle\caches\transforms-1\files-1.1\appcompat-v7-25.4.0.aar\2229c26b858003df1991db52af855a8d\AndroidManifest.xml:28:13-35
	android:name
		ADDED from [com.android.support:appcompat-v7:25.4.0] C:\Users\Ross\.gradle\caches\transforms-1\files-1.1\appcompat-v7-25.4.0.aar\2229c26b858003df1991db52af855a8d\AndroidManifest.xml:27:13-51
